{
	"_type": "export",
	"__export_format": 3,
	"__export_date": "2019-03-03T16:24:27.846Z",
	"__export_source": "insomnia.desktop.app:v6.3.2",
	"resources": [
		{
			"_id": "wrk_6db6ba19e570427d964fc429a34ca9e0",
			"created": 1551540752795,
			"description": "",
			"modified": 1551540752794,
			"name": "MyQuest",
			"parentId": null,
			"_type": "workspace"
		},
		{
			"_id": "env_a5cc8e4a753241e3831f6c69f919f813",
			"color": null,
			"created": 1551540753030,
			"data": {},
			"isPrivate": false,
			"metaSortKey": 1551540753030,
			"modified": 1551594954771,
			"name": "New Environment",
			"parentId": "wrk_6db6ba19e570427d964fc429a34ca9e0",
			"_type": "environment"
		},
		{
			"_id": "jar_cee282e431e54d49a75c135d91da6fc6",
			"cookies": [],
			"created": 1551540753042,
			"modified": 1551540753042,
			"name": "Default Jar",
			"parentId": "wrk_6db6ba19e570427d964fc429a34ca9e0",
			"_type": "cookie_jar"
		},
		{
			"_id": "req_cd8451a0274843b7a438ba5dae774387",
			"authentication": {},
			"body": {
				"mimeType": "application/json",
				"text": "{\n\t\"username\": \"user1\",\n\t\"password\": \"qwerty123\"\n}"
			},
			"created": 1551540794138,
			"description": "",
			"headers": [
				{
					"id": "pair_c19c1808e702419ebf115f092abc7eda",
					"name": "Content-Type",
					"value": "application/json"
				}
			],
			"isPrivate": false,
			"metaSortKey": -1551540794139,
			"method": "POST",
			"modified": 1551630244727,
			"name": "Login",
			"parameters": [],
			"parentId": "wrk_6db6ba19e570427d964fc429a34ca9e0",
			"settingDisableRenderRequestBody": false,
			"settingEncodeUrl": true,
			"settingMaxTimelineDataSize": 1000,
			"settingRebuildPath": true,
			"settingSendCookies": true,
			"settingStoreCookies": true,
			"url": "{{ base_url  }}login",
			"_type": "request"
		},
		{
			"_id": "req_4d9d06d0108b47f7b449659cb32a6a04",
			"authentication": {},
			"body": {
				"mimeType": "application/json",
				"text": "{\n\t\"username\": \"user1\",\n\t\"password\": \"qwerty123\"\n}"
			},
			"created": 1551540949148,
			"description": "",
			"headers": [
				{
					"id": "pair_292ecad36b734312a80669fa21f48232",
					"name": "Content-Type",
					"value": "application/json"
				}
			],
			"isPrivate": false,
			"metaSortKey": -1551540949148,
			"method": "POST",
			"modified": 1551630243276,
			"name": "Register",
			"parameters": [],
			"parentId": "wrk_6db6ba19e570427d964fc429a34ca9e0",
			"settingDisableRenderRequestBody": false,
			"settingEncodeUrl": true,
			"settingMaxTimelineDataSize": 1000,
			"settingRebuildPath": true,
			"settingSendCookies": true,
			"settingStoreCookies": true,
			"url": "{{ base_url  }}register",
			"_type": "request"
		},
		{
			"_id": "req_af2a1b5c6b604d8cb4d6b0f5ebc11491",
			"authentication": {},
			"body": {},
			"created": 1551573574889,
			"description": "",
			"headers": [
				{
					"id": "pair_396a6940c0ba4d91ad4cf293e5b9091c",
					"name": "Authorization",
					"value": "Token {{ token  }}"
				}
			],
			"isPrivate": false,
			"metaSortKey": -1551573574889,
			"method": "GET",
			"modified": 1551575309764,
			"name": "Games",
			"parameters": [],
			"parentId": "wrk_6db6ba19e570427d964fc429a34ca9e0",
			"settingDisableRenderRequestBody": false,
			"settingEncodeUrl": true,
			"settingMaxTimelineDataSize": 1000,
			"settingRebuildPath": true,
			"settingSendCookies": true,
			"settingStoreCookies": true,
			"url": "{{ base_url  }}games",
			"_type": "request"
		},
		{
			"_id": "req_d666daca4071441a8d96590898ba6db8",
			"authentication": {},
			"body": {
				"mimeType": "application/json",
				"text": "{\n\t\"game_id\": 1\n}"
			},
			"created": 1551577051518,
			"description": "",
			"headers": [
				{
					"id": "pair_24589faa81164fc4a186cecf367220aa",
					"name": "Authorization",
					"value": "Token {{ token  }}"
				},
				{
					"id": "pair_45ccba2b9b194bb3ba228578bfc880b6",
					"name": "Content-Type",
					"value": "application/json"
				}
			],
			"isPrivate": false,
			"metaSortKey": -1551577051518,
			"method": "POST",
			"modified": 1551630240456,
			"name": "Join Game",
			"parameters": [],
			"parentId": "wrk_6db6ba19e570427d964fc429a34ca9e0",
			"settingDisableRenderRequestBody": false,
			"settingEncodeUrl": true,
			"settingMaxTimelineDataSize": 1000,
			"settingRebuildPath": true,
			"settingSendCookies": true,
			"settingStoreCookies": true,
			"url": "{{ base_url  }}join_game",
			"_type": "request"
		},
		{
			"_id": "req_d81eb5aa79994327998f19243318fd28",
			"authentication": {},
			"body": {
				"mimeType": "application/json",
				"text": "{\n\t\"game_id\": 1\n}"
			},
			"created": 1551579381867,
			"description": "",
			"headers": [
				{
					"id": "pair_5c5dff91664244819c8f44c8c898e47f",
					"name": "Content-Type",
					"value": "application/json"
				},
				{
					"id": "pair_687bf94c25184cd89f925acd0e3625f7",
					"name": "Authorization",
					"value": "Token {{ token  }}"
				}
			],
			"isPrivate": false,
			"metaSortKey": -1551579381867,
			"method": "POST",
			"modified": 1551630238713,
			"name": "Start game",
			"parameters": [],
			"parentId": "wrk_6db6ba19e570427d964fc429a34ca9e0",
			"settingDisableRenderRequestBody": false,
			"settingEncodeUrl": true,
			"settingMaxTimelineDataSize": 1000,
			"settingRebuildPath": true,
			"settingSendCookies": true,
			"settingStoreCookies": true,
			"url": "{{ base_url  }}start_game",
			"_type": "request"
		},
		{
			"_id": "req_ec07292105734ee7bdd2f6c043029c8c",
			"authentication": {},
			"body": {
				"mimeType": "application/json",
				"text": "{\n\t\"game_id\": 1\n}"
			},
			"created": 1551580427889,
			"description": "",
			"headers": [
				{
					"id": "pair_e8bce22071dc49d7a4fe3c34b63536a9",
					"name": "Authorization",
					"value": "Token  {{ token  }}"
				},
				{
					"id": "pair_e68c78864bac45adae71b9eb62e5f62d",
					"name": "Content-Type",
					"value": "application/json"
				}
			],
			"isPrivate": false,
			"metaSortKey": -1551580427889,
			"method": "GET",
			"modified": 1551630237237,
			"name": "Current state",
			"parameters": [],
			"parentId": "wrk_6db6ba19e570427d964fc429a34ca9e0",
			"settingDisableRenderRequestBody": false,
			"settingEncodeUrl": true,
			"settingMaxTimelineDataSize": 1000,
			"settingRebuildPath": true,
			"settingSendCookies": true,
			"settingStoreCookies": true,
			"url": "{{ base_url  }}current_state",
			"_type": "request"
		},
		{
			"_id": "req_159603ed658949cb941be8661f1ef2aa",
			"authentication": {},
			"body": {
				"mimeType": "application/json",
				"text": "{\n\t\"game_id\": 1\n}"
			},
			"created": 1551580903060,
			"description": "",
			"headers": [
				{
					"id": "pair_edb872fc9c114f9abf466b8d4c9d69d8",
					"name": "Authorization",
					"value": "Token {{ token  }}"
				},
				{
					"id": "pair_4adf8bce41ab4ab983932d6bddc13893",
					"name": "Content-Type",
					"value": "application/json"
				}
			],
			"isPrivate": false,
			"metaSortKey": -1551580903060,
			"method": "POST",
			"modified": 1551630235744,
			"name": "Get clue",
			"parameters": [],
			"parentId": "wrk_6db6ba19e570427d964fc429a34ca9e0",
			"settingDisableRenderRequestBody": false,
			"settingEncodeUrl": true,
			"settingMaxTimelineDataSize": 1000,
			"settingRebuildPath": true,
			"settingSendCookies": true,
			"settingStoreCookies": true,
			"url": "{{ base_url  }}take_clue",
			"_type": "request"
		},
		{
			"_id": "req_a46fbf3203bd4a51acb42c8c3a0c3019",
			"authentication": {},
			"body": {
				"mimeType": "application/json",
				"text": "{\n\t\"game_id\": 1,\n\t\"code\": \"Вася\"\n}"
			},
			"created": 1551581257307,
			"description": "",
			"headers": [
				{
					"id": "pair_79f5a37712c64297a161dc3c904b7324",
					"name": "Authorization",
					"value": "Token {{ token  }}"
				},
				{
					"id": "pair_a7fc66b0f483487691220bbcf28c8812",
					"name": "Content-Type",
					"value": "application/json"
				}
			],
			"isPrivate": false,
			"metaSortKey": -1551581257307,
			"method": "POST",
			"modified": 1551630232348,
			"name": "Code",
			"parameters": [],
			"parentId": "wrk_6db6ba19e570427d964fc429a34ca9e0",
			"settingDisableRenderRequestBody": false,
			"settingEncodeUrl": true,
			"settingMaxTimelineDataSize": 1000,
			"settingRebuildPath": true,
			"settingSendCookies": true,
			"settingStoreCookies": true,
			"url": "{{ base_url  }}code",
			"_type": "request"
		},
		{
			"_id": "req_0fe92f5b3ee1448fbca7e06ca8d10d37",
			"authentication": {},
			"body": {
				"mimeType": "application/json",
				"text": "{\n\t\"game_id\": 1\n}"
			},
			"created": 1551582810019,
			"description": "",
			"headers": [
				{
					"id": "pair_78e64510d2bd4fd6a0215bfb937cf7d8",
					"name": "Authorization",
					"value": "Token  {{ token  }}"
				},
				{
					"id": "pair_83394c5063c341f0a67941c1a082bb5b",
					"name": "Content-Type",
					"value": "application/json"
				}
			],
			"isPrivate": false,
			"metaSortKey": -1551582810019,
			"method": "GET",
			"modified": 1551630233962,
			"name": "Stats",
			"parameters": [],
			"parentId": "wrk_6db6ba19e570427d964fc429a34ca9e0",
			"settingDisableRenderRequestBody": false,
			"settingEncodeUrl": true,
			"settingMaxTimelineDataSize": 1000,
			"settingRebuildPath": true,
			"settingSendCookies": true,
			"settingStoreCookies": true,
			"url": "{{ base_url  }}stats",
			"_type": "request"
		},
		{
			"_id": "env_4457ee67d0ee4206a2fc92176e5df587",
			"color": null,
			"created": 1551594889029,
			"data": {
				"base_url": "http://157.230.101.123:8000/api/",
				"token": "59c8dfe8e594d9ff32ee97c7caf85bf84fb4c801"
			},
			"isPrivate": false,
			"metaSortKey": 1551594889029,
			"modified": 1551595425926,
			"name": "Server",
			"parentId": "env_a5cc8e4a753241e3831f6c69f919f813",
			"_type": "environment"
		},
		{
			"_id": "env_0c54a1d3373347129754455f8c3fb40f",
			"color": null,
			"created": 1551594938278,
			"data": {
				"base_url": "http://127.0.0.1:8000/api/",
				"token": "59c8dfe8e594d9ff32ee97c7caf85bf84fb4c801"
			},
			"isPrivate": false,
			"metaSortKey": 1551594938278,
			"modified": 1551594943246,
			"name": "Local",
			"parentId": "env_a5cc8e4a753241e3831f6c69f919f813",
			"_type": "environment"
		}
	]
}